INDEX VERSION 1.131+C:\Users\DAM\Desktop\ExamenUD2 David Lafoz\Ejercicio2\Ejercicio2 David\.metadata\.plugins\org.eclipse.jdt.core
877455316.index
3104340509.index
2111512668.index
177638979.index
3183557474.index
715107097.index
2605561000.index
1713172528.index
2624726496.index
2205290751.index
3032694404.index
3745837425.index
3579902010.index
2202167482.index
3421819425.index
2686296187.index
2828169528.index
1296103107.index
124558605.index
1303184529.index
